{
    "production": [
        "jshint:moduleproduction",
        "sass:moduleproduction",
        "postcss",
        "cssmin",
        "uglify:moduleproduction"
    ],
    "default": [
        "production"
    ]
}